The Truth Is Out There
…
So before we get the tables, I’m just going to select the nodes I actually want to collect, then use html_table to gather them all in table format.

tables <- wiki %>%
  read_html() %>%
  html_nodes(., "table") %>%
  .[c(2:6, 8:11, 13:14)] %>%
  html_table(fill = TRUE)

I won’t show all the tables just for the sake of space, but here is the first one. It looks like the “prod code” column is going to cause issues when I try and map them to one dataframe, because in some cases there are hyperlinks which results in inconsistent column names. (Hint: the table is interactive so you can flip over to the other columns or down to the next page).

tables[[1]]
## # A tibble: 24 × 8
##    No.overall `No. inseason` Title  `Directed by`  `Written by` `Original air d…
##         <int>          <int> <chr>  <chr>          <chr>        <chr>           
##  1          1              1 "\"Pi… Robert Mandel  Chris Carter September 10, 1…
##  2          2              2 "\"De… Daniel Sackhe… Chris Carter September 17, 1…
##  3          3              3 "\"Sq… Harry Longstr… Glen Morgan… September 24, 1…
##  4          4              4 "\"Co… Daniel Sackhe… Alex Gansa … October 1, 1993…
##  5          5              5 "\"Th… Joe Napolitano Chris Carter October 8, 1993…
##  6          6              6 "\"Sh… Michael Katle… Glen Morgan… October 22, 199…
##  7          7              7 "\"Gh… Jerrold Freed… Alex Gansa … October 29, 199…
##  8          8              8 "\"Ic… David Nutter   Glen Morgan… November 5, 199…
##  9          9              9 "\"Sp… William Graham Chris Carter November 12, 19…
## 10         10             10 "\"Fa… Larry Shaw     Howard Gord… November 19, 19…
## # … with 14 more rows, and 2 more variables: Prod.code [40] <chr>,
## #   U.S. viewers(millions) <chr>
…
I’m also interested in getting the item descriptions. I still want to look at the scripts, but these are short and sweet and I think they’ll be useful. I’ll use the same method as the episode ratings for this.

temp <- links %>% 
  map(. %>% read_html() %>% 
  html_nodes(".item_description") %>%
  html_text())

table_df <- table_df %>%
  mutate(description = temp %>% flatten() %>% unlist() %>% str_trim(., side = "both"))

Here’s the table so far.

table_df
## # A tibble: 217 × 11
##    season  no_overall no_inseason title  directed_by written_by original_air_da…
##    <chr>        <int>       <int> <chr>  <chr>       <chr>      <date>          
##  1 Season…          1           1 "\"Pi… Robert Man… Chris Car… 1993-09-10      
##  2 Season…          2           2 "\"De… Daniel Sac… Chris Car… 1993-09-17      
##  3 Season…          3           3 "\"Sq… Harry Long… Glen Morg… 1993-09-24      
##  4 Season…          4           4 "\"Co… Daniel Sac… Alex Gans… 1993-10-01      
##  5 Season…          5           5 "\"Th… Joe Napoli… Chris Car… 1993-10-08      
##  6 Season…          6           6 "\"Sh… Michael Ka… Glen Morg… 1993-10-22      
##  7 Season…          7           7 "\"Gh… Jerrold Fr… Alex Gans… 1993-10-29      
##  8 Season…          8           8 "\"Ic… David Nutt… Glen Morg… 1993-11-05      
##  9 Season…          9           9 "\"Sp… William Gr… Chris Car… 1993-11-12      
## 10 Season…         10          10 "\"Fa… Larry Shaw  Howard Go… 1993-11-19      
## # … with 207 more rows, and 4 more variables: prod_code <chr>,
## #   no_viewers <dbl>, rating <dbl>, description <chr>
…
